Engine/Binaries/Win64/UE4Game.exe	2019-11-03T18:22:23.709Z
Engine/Binaries/ThirdParty/Oculus/OVRPlugin/OVRPlugin/Win64/OVRPlugin.dll	2019-11-03T18:20:53.741Z
Engine/Binaries/ThirdParty/DbgHelp/dbghelp.dll	2019-11-03T18:20:40.091Z
Engine/Binaries/ThirdParty/libsndfile/Win64/libsndfile-1.dll	2019-11-03T18:20:42.005Z
Engine/Binaries/ThirdParty/NVIDIA/NVaftermath/Win64/GFSDK_Aftermath_Lib.x64.dll	2019-11-03T18:20:51.368Z
Engine/Binaries/ThirdParty/Windows/DirectX/x64/WinPixEventRuntime.dll	2019-11-03T18:21:30.633Z
Engine/Binaries/ThirdParty/PhysX3/Win64/VS2015/PxFoundationPROFILE_x64.dll	2019-11-03T18:21:06.804Z
Engine/Binaries/ThirdParty/PhysX3/Win64/VS2015/PxPvdSDKPROFILE_x64.dll	2019-11-03T18:21:06.905Z
Engine/Binaries/ThirdParty/PhysX3/Win64/VS2015/PhysX3PROFILE_x64.dll	2019-11-03T18:21:06.282Z
Engine/Binaries/ThirdParty/PhysX3/Win64/VS2015/PhysX3CookingPROFILE_x64.dll	2019-11-03T18:21:06.058Z
Engine/Binaries/ThirdParty/PhysX3/Win64/VS2015/PhysX3CommonPROFILE_x64.dll	2019-11-03T18:21:05.679Z
Engine/Binaries/ThirdParty/PhysX3/Win64/VS2015/APEX_ClothingPROFILE_x64.dll	2019-11-03T18:21:02.467Z
Engine/Binaries/ThirdParty/PhysX3/Win64/VS2015/APEX_LegacyPROFILE_x64.dll	2019-11-03T18:21:03.751Z
Engine/Binaries/ThirdParty/PhysX3/Win64/VS2015/ApexFrameworkPROFILE_x64.dll	2019-11-03T18:21:04.589Z
Engine/Binaries/ThirdParty/PhysX3/Win64/VS2015/NvClothPROFILE_x64.dll	2019-11-03T18:21:05.118Z
Engine/Binaries/ThirdParty/OpenVR/OpenVRv1_5_17/Win64/openvr_api.dll	2019-11-03T18:20:53.849Z
Engine/Binaries/ThirdParty/Ogg/Win64/VS2015/libogg_64.dll	2019-11-03T18:20:53.761Z
Engine/Binaries/ThirdParty/Vorbis/Win64/VS2015/libvorbis_64.dll	2019-11-03T18:21:29.733Z
Engine/Binaries/ThirdParty/Vorbis/Win64/VS2015/libvorbisfile_64.dll	2019-11-03T18:21:29.738Z
Mari_LowPoly_Neo_qui_Marche/Content/Movies/videoplayback.mp4	2019-12-03T20:35:14.000Z
Mari_LowPoly_Neo_qui_Marche/Content/Movies/TP4_Générique.mp4	2019-12-03T20:35:18.000Z
Mari_LowPoly_Neo_qui_Marche.exe	2019-12-03T20:45:26.000Z
